﻿project_name,site_id,latitude,longitude,date_YYYY-MM-DD,time_HH:MM:SS,0.05_m,0.1_m,0.2_m,0.5_m,0.75_m
Your Great Project,West Whale Lake,63.390429,-109.364898,2015-04-14,03:00:00,-3.510,-2.411,-1.871,-1.037,-0.814
Your Great Project,West Whale Lake,63.390429,-109.364898,2015-04-14,04:00:00,-3.469,-2.382,-1.856,-1.046,-0.818
Your Great Project,West Whale Lake,63.390429,-109.364898,2015-04-14,05:00:00,-3.457,-2.353,-1.835,-1.037,-0.828
Your Great Project,West Whale Lake,63.390429,-109.364898,2015-04-14,06:00:00,-3.466,-2.336,-1.825,-1.039,-0.831

